[
  { "name": "BALI", "id": "bali" },
  { "name": "BANGKA BELITUNG", "id": "bangka belitung" },
  { "name": "BANTEN", "id": "banten" },
  { "name": "BENGKULU", "id": "bengkulu" },
  { "name": "D.I. YOGYAKARTA", "id": "d.i. yogyakarta" },
  { "name": "DKI JAKARTA", "id": "dki jakarta" },
  { "name": "GORONTALO", "id": "gorontalo" },
  { "name": "JAMBI", "id": "jambi" },
  { "name": "JAWA BARAT", "id": "jawa barat" },
  { "name": "JAWA TENGAH", "id": "jawa tengah" },
  { "name": "JAWA TIMUR", "id": "jawa timur" },
  { "name": "KALIMANTAN BARAT", "id": "kalimantan barat" },
  { "name": "KALIMANTAN SELATAN", "id": "kalimantan selatan" },
  { "name": "KALIMANTAN TENGAH", "id": "kalimantan tengah" },
  { "name": "KALIMANTAN TIMUR", "id": "kalimantan timur" },
  { "name": "KALIMANTAN UTARA", "id": "kalimantan utara" },
  { "name": "KEPULAUAN RIAU", "id": "kepulauan riau" },
  { "name": "LAMPUNG", "id": "lampung" },
  { "name": "MALUKU", "id": "maluku" },
  { "name": "MALUKU UTARA", "id": "maluku utara" },
  { "name": "NAD", "id": "nad" },
  { "name": "NTB", "id": "ntb" },
  { "name": "NTT", "id": "ntt" },
  { "name": "PAPUA", "id": "papua" },
  { "name": "PAPUA BARAT", "id": "papua barat" },
  { "name": "RIAU", "id": "riau" },
  { "name": "SULAWESI BARAT", "id": "sulawesi barat" },
  { "name": "SULAWESI SELATAN", "id": "sulawesi selatan" },
  { "name": "SULAWESI TENGAH", "id": "sulawesi tengah" },
  { "name": "SULAWESI TENGGARA", "id": "sulawesi tenggara" },
  { "name": "SULAWESI UTARA", "id": "sulawesi utara" },
  { "name": "SUMATERA BARAT", "id": "sumatera barat" },
  { "name": "SUMATERA SELATAN", "id": "sumatera selatan" },
  { "name": "SUMATERA UTARA", "id": "sumatera utara" }
]
