{
    "$schema": "https://docs.renovatebot.com/renovate-schema.json",
    "extends": [
        "config:base",
        ":prHourlyLimitNone",
        ":rebaseStalePrs",
        ":label(renovate)",
        ":assignee(max)"
    ],
    "packageRules": [
      {
        "packageNames": ["typescript"],
        "enabled": false
      }
    ]
}